<svg xmlns="http://www.w3.org/2000/svg" xmlns:xlink="http://www.w3.org/1999/xlink" width="10" height="14" viewBox="0 0 10 14">
  <defs>
    <style>
      .cls-1 {
        fill-rule: evenodd;
        filter: url(#filter);
      }
    </style>
    <filter id="filter" x="13" y="120" width="10" height="14" filterUnits="userSpaceOnUse">
      <feFlood result="flood" flood-color="#c2d117"/>
      <feComposite result="composite" operator="in" in2="SourceGraphic"/>
      <feBlend result="blend" in2="SourceGraphic"/>
    </filter>
  </defs>
  <path id="icon_arrow" class="cls-1" d="M13,134l6.066-7L13,120h3.934L23,127l-6.066,7H13Z" transform="translate(-13 -120)"/>
</svg>
