<svg xmlns="http://www.w3.org/2000/svg" width="14" height="28" viewBox="0 0 14 28">
  <defs>
    <style>
      .cls-1 {
        fill: #c2d117;
        fill-rule: evenodd;
      }
    </style>
  </defs>
  <path id="Pfeil_Kopie" data-name="Pfeil Kopie" class="cls-1" d="M275,172.987L285.922,159,275,145.013h3.073L289,159l-10.921,13.986H275Z" transform="translate(-275 -145)"/>
</svg>
