<svg xmlns="http://www.w3.org/2000/svg" width="14.406" height="27.624" viewBox="0 0 14.406 27.624">
  <defs>
    <style>
      .cls-1 {
        fill: #c2d117;
        fill-rule: evenodd;
      }
    </style>
  </defs>
  <path id="Pfeil" class="cls-1" d="M25,172.8L13.761,159,25,145.2H21.836L10.6,159l11.238,13.8H25Z" transform="translate(-10.594 -145.188)"/>
</svg>
